..3.2.6..9..3.5..1..18.64....81.29..7.......8..67.82....26.95..8..2.3..9..5.1.3..
2...8.3...6..7..84.3.5..2.9...1.54.8.........4.27.6...3.1..7.4.72..4..6...4.1...3
......9.7...42.18....7.5.261..9.4....5.....4....5.7..992.1.8....34.59...5.7......
.3..5..4...8.1.5..46.....12.7.5.2.8....6.3....4.1.9.3.25.....98..1.2.6...8..6..2.
.2.81.74.7....31...9...28.5..9.4..874..2.8..316..3.2..3.27...6...56....8.76.51.9.
1..92....524.1...........7..5...81.2.........4.27...9..6...........3.945....71..6
.43.8.25.6.............1.949....4.7....6.8....1.2....382.5.............5.34.9.71.
48...69.2..2..8..19..37..6.84..1.2....37.41....1.6..49.2..85..77..9..6..6.92...18
...9....2.5.1234...3....16.9.8.......7.....9.......2.5.91....5...7439.2.4....7...
..19....39..7..16..3...5..7.5......9..43.26..2......7.6..1...3..42..7..65....68..
...1254....84.....42.8......3.....95.6.9.2.1.51.....6......3.49.....72....1298...
.6234.75.1....56..57.....4.....948..4.......6..583.....3.....91..64....7.59.8326.
3..........5..9...2..5.4....2....7..16.....587.431.6.....89.1......67.8......5437
63..........5....8..5674.......2......34.1.2.......345.....7..4.8.3..9.29471...8.
....2..4...8.35.......7.6.2.31.4697.2...........5.12.3.49...73........1.8....4...
361.259...8.96..1.4......57..8...471...6.3...259...8..74......5.2..18.6...547.329
.5.8.7.2.6...1..9.7.254...6.7..2.3.15.4...9.81.3.8..7.9...762.5.6..9...3.8.1.3.4.
.8...5........3457....7.8.9.6.4..9.3..7.1.5..4.8..7.2.9.1.2....8423........1...8.
..35.29......4....1.6...3.59..251..8.7.4.8.3.8..763..13.8...1.4....2......51.48..
...........98.51...519.742.29.4.1.65.........14.5.8.93.267.958...51.36...........
