.......1.....246.9..9....38....3..47.451.839.83..6....76....9..9.475.....2.......
..........94..251..6..15.3..57.4......98.32......9.35..7.92..6..856..94..........
..75....8.914..7..2........8.46.9....2.....7....2.14.9........4..9..316.6....83..
..........4.6.3.7...57986...548.129...3...1...789.236...72895...9.4.6.3..........
..79.6.2.6......43.83.25.......987.59..1.43......5...2..1...2.7.4....8......1..5.
17...4.8.8.29.6.41.6.3......85....92.........42....83......8.1.53.1.24.8.1.6...53
.6..9.....3...2...1..84......24...6.6.5...3.2.74..65..8..324......7...89..1.6.4..
...83..793.......5.7.4..62...2.9..6....2.83....4.6..8..2.6..73.4.......6...71..94
....6....5.......3...4.2....8.....7.4...8...6..12938...5.9.1.8...2...3...6.8.7.5.
.....5..3.....38..321..8..671..2...59.3...2.88...6..141..4..587..81.....2..5.....
.9...86..5..7.48.....2...74.15.723.....9....186.1..7..95.6.7.....2........3.1....
..........7..8...2..87.5.946..8.4.15....5.4..4..1.2.37..39.8.51.8..4...9.........
.....189.8..4..5..46.......7..985.6....6.3....8.214..7.......29..1..7..8.423.....
..1..2.....2.1348.45...9.1....9..537.2.....9.793..8....1.6...23.8739.6.....2..1..
...4.....7.6....29.14.9....8.7..62...9.2.8..42.3..96...82.5....1.9....37...6.....
.....6.........489...481..3.4..73.96..9...1..85.14..2.5..694...364.........5.....
.......4.....17..29.3..61..7.1.6...348.....255...8.4.7..59..8.48..65.....9.......
.85...23..1.3.2.9...64.58..3..617..5.72...16.............1.6....249.837..........
4..1.6..2.9.5.4.1...7.2.4..61.....43..8...1..57.....69..1.4.9...4.7.9.2.7..6.3..4
...........63.21..3491.8562.27...65.6.4...8.9.85...42.7685.9214..17.43...........
